…
## Tidy WHO Data

``` r
who_tidy <- who %>% pivot_longer(
  cols = new_sp_m014:newrel_f65,
  names_to = c("diagnosis", "gender", "age"),
  names_pattern = "new_?(.*)_(.)(.*)",
  values_to = "count"
)
who_tidy
```

    ## # A tibble: 405,440 × 8
    ##    country     iso2  iso3   year diagnosis gender age   count
    ##    <chr>       <chr> <chr> <dbl> <chr>     <chr>  <chr> <dbl>
    ##  1 Afghanistan AF    AFG    1980 sp        m      014      NA
    ##  2 Afghanistan AF    AFG    1980 sp        m      1524     NA
    ##  3 Afghanistan AF    AFG    1980 sp        m      2534     NA
    ##  4 Afghanistan AF    AFG    1980 sp        m      3544     NA
    ##  5 Afghanistan AF    AFG    1980 sp        m      4554     NA
    ##  6 Afghanistan AF    AFG    1980 sp        m      5564     NA
    ##  7 Afghanistan AF    AFG    1980 sp        m      65       NA
    ##  8 Afghanistan AF    AFG    1980 sp        f      014      NA
    ##  9 Afghanistan AF    AFG    1980 sp        f      1524     NA
    ## 10 Afghanistan AF    AFG    1980 sp        f      2534     NA
    ## # ℹ 405,430 more rows
…
