…
The distribution for females (F) seems slightly more concentrated at
lower BMD values, especially for older individuals. Males (M) appear to
have a broader range of BMD values, with some higher values compared to
females.

``` r
set.seed(5)  
split <- sample.split(bmd_raw$spnbmd, SplitRatio = 0.8)
bmd_train <- subset(bmd_raw, split == TRUE)   # Training set (80%)
bmd_test <- subset(bmd_raw, split == FALSE) 
bmd_train
```

    ## # A tibble: 135 × 9
    ##    idnum   age sex   fracture weight_kg height_cm medication waiting_time spnbmd
    ##    <dbl> <dbl> <chr> <chr>        <dbl>     <dbl> <chr>             <dbl>  <dbl>
    ##  1   469  57.1 F     no              64      156. Anticonvu…           18  0.879
    ##  2  8724  75.7 F     no              78      162  No medica…           56  0.795
    ##  3 24180  78.2 F     no              60      148  No medica…           14  0.711
    ##  4 17072  54.2 M     no              55      161  No medica…           20  0.791
    ##  5  3806  77.2 M     no              65      168  No medica…            7  0.730
    ##  6 17106  56.2 M     no              77      159  No medica…           26  1.01 
    ##  7 23834  49.9 F     no              59      150  No medica…            9  0.731
    ##  8  2088  66.3 M     no              72      160. No medica…           10  0.947
    ##  9  5364  45.9 M     no              62      169  No medica…           12  0.802
    ## 10  8922  74.0 F     no              68      164  No medica…            5  0.579
    ## # ℹ 125 more rows

``` r
bmd_test
```

    ## # A tibble: 34 × 9
    ##    idnum   age sex   fracture weight_kg height_cm medication waiting_time spnbmd
    ##    <dbl> <dbl> <chr> <chr>        <dbl>     <dbl> <chr>             <dbl>  <dbl>
    ##  1  6736  70.8 M     no              73      170. No medica…           10  0.907
    ##  2  2454  68.4 M     no              64      167  Glucocort…            6  0.689
    ##  3  5288  40.2 M     no              66      165  No medica…            8  1.04 
    ##  4  8622  57.8 F     no              50      152  No medica…           21  0.825
    ##  5 23843  58.2 F     no              59      154  No medica…           10  0.850
    ##  6   688  77.2 M     no              69      166  Glucocort…            9  1.00 
    ##  7  5292  75.0 M     no              69      174. No medica…           22  0.936
    ##  8   342  66.6 F     no              60      153  No medica…           18  0.963
    ##  9 23912  67.7 F     no              56      150  No medica…            5  0.926
    ## 10    35  56.2 F     no              68      150. No medica…           18  0.717
    ## # ℹ 24 more rows
…
When K is small the model is very flexible, leading to low bias but high
variance.

``` r
training_results_summary <- readRDS("C:\\Users\\DWIGHT JIRO\\Downloads\\training_results_summary.rds")
training_results_summary
```

    ## # A tibble: 6,174 × 5
    ##        K    X1    X2    bias variance
    ##    <dbl> <dbl> <dbl>   <dbl>    <dbl>
    ##  1     1     0     0 -0.25       16.2
    ##  2     1     0    10  0.14       12.2
    ##  3     1     0    20 -0.523      20.4
    ##  4     1     0    30  0.109      15.6
    ##  5     1     0    40 -0.566      21.4
    ##  6     1     0    50 -0.336      15.9
    ##  7     1     0    60 -1.04       12.4
    ##  8     1     0    70 -0.0213     12.4
    ##  9     1     0    80  0.045      18.3
    ## 10     1     0    90 -0.312      14.7
    ## # ℹ 6,164 more rows
…
