…
``` r
df <- df %>%
  mutate(HasInternetAndPhone = ifelse(InternetService != "No" & PhoneService == "Yes", 1, 0))


df %>%
  group_by(Tenure) %>%
  summarise(
    Count = n(),
    Avg_Monthly_Charges = mean(MonthlyCharges, na.rm = TRUE),
    Churn_Rate = mean(as.numeric(Churn == "Yes"))
  )
```

    ## # A tibble: 72 × 4
    ##    Tenure Count Avg_Monthly_Charges Churn_Rate
    ##     <int> <int>               <dbl>      <dbl>
    ##  1      0   136                72.1      0.199
    ##  2      1   157                67.9      0.293
    ##  3      2   146                72.2      0.240
    ##  4      3   131                67.8      0.305
    ##  5      4   170                68.9      0.265
    ##  6      5   153                68.5      0.255
    ##  7      6   139                69.7      0.288
    ##  8      7   128                71.9      0.266
    ##  9      8   160                74.0      0.275
    ## 10      9   125                68.8      0.288
    ## # ℹ 62 more rows

``` r
df %>%
  group_by(Tenure, Churn) %>%
  summarise(Count = n(), .groups = 'drop')
```

    ## # A tibble: 144 × 3
    ##    Tenure Churn Count
    ##     <int> <fct> <int>
    ##  1      0 No      109
    ##  2      0 Yes      27
    ##  3      1 No      111
    ##  4      1 Yes      46
    ##  5      2 No      111
    ##  6      2 Yes      35
    ##  7      3 No       91
    ##  8      3 Yes      40
    ##  9      4 No      125
    ## 10      4 Yes      45
    ## # ℹ 134 more rows
…
